"room"	"complex"	"description"	"arrdate"	"depdate"	"oosremark"	"oossetby"	"oossettime"	"oosoffby"	"oosofftime"	"oosreason"	"roomtype"
"211"	"MAIN"	""	"2016-07-25"	"2016-07-26"	"5"	"oasis"	"2016-07-25 11:10:11"	""	""	"OHSE"	"BFJS"
"212"	"MAIN"	""	"2016-07-25"	"2016-07-26"	"5"	"oasis"	"2016-07-25 11:10:11"	""	""	"OHSE"	"BFJS"
"213"	"MAIN"	""	"2016-07-25"	"2016-07-26"	"5"	"oasis"	"2016-07-25 11:10:11"	""	""	"OHSE"	"BFJS"
"2201"	"MAIN"	""	"2016-07-25"	"2016-07-26"	"5"	"oasis"	"2016-07-25 11:10:11"	""	""	"OHSE"	"TERS"
"2101"	"MAIN"	""	"2016-08-02"	"2016-08-03"	"OOTH"	"intf"	"2016-08-04 16:38:14"	""	""	"OOTH"	"2BRS"
